{
	"tags"      : {
		"allowUnknownTags" : true
	},
	"plugins"   : ["plugins/markdown"],
	"templates" : {
		"cleverLinks"     : false,
		"monospaceLinks"  : false,
		"default"         : {
			"outputSourceFiles" : true
		},
		"systemName"      : "input-supporter",
		"footer"          : "",
		"copyright"       : "DocStrap Copyright © 2012-2013 The contributors to the JSDoc3 and DocStrap projects.",
		"navType"         : "vertical",
		"theme"           : "Spacelab",
		"linenums"        : true,
		"collapseSymbols" : false,
		"inverseNav"      : true
	},
	"markdown"  : {
		"parser"   : "gfm",
		"hardwrap" : true
	}
}
